{
  "comment": "Fixtures are static files that are used in tests such as JSON files and images",
  "name": "Using fixtures to represent data",
  "email": "hello@cypress.io",
  "body": "Fixtures are a great way to mock data for responses to routes"
}
